…
``` r
# root mean squared error (rmse) lowest  for smooth model => best fit.
```

## Cross validation using modlr package

``` r
cv_df =          # creating a cross-validation df
  crossv_mc(nonlin_df, 100)   # cross-validation on "non_linear" df, 100 runs = drawing samples from a dataset in a repeated way.

cv_df
```

    ## # A tibble: 100 x 3
    ##    train      test       .id  
    ##    <list>     <list>     <chr>
    ##  1 <resample> <resample> 001  
    ##  2 <resample> <resample> 002  
    ##  3 <resample> <resample> 003  
    ##  4 <resample> <resample> 004  
    ##  5 <resample> <resample> 005  
    ##  6 <resample> <resample> 006  
    ##  7 <resample> <resample> 007  
    ##  8 <resample> <resample> 008  
    ##  9 <resample> <resample> 009  
    ## 10 <resample> <resample> 010  
    ## # ... with 90 more rows

What is happening here…

``` r
cv_df %>% pull(train) %>% .[[1]] %>% as_tibble() #looking at 1st list object in "train" column
```

    ## # A tibble: 79 x 3
    ##       id      x       y
    ##    <int>  <dbl>   <dbl>
    ##  1     1 0.266   1.11  
    ##  2     2 0.372   0.764 
    ##  3     3 0.573   0.358 
    ##  4     4 0.908  -3.04  
    ##  5     6 0.898  -1.99  
    ##  6     7 0.945  -3.27  
    ##  7     8 0.661  -0.615 
    ##  8     9 0.629   0.0878
    ##  9    10 0.0618  0.392 
    ## 10    11 0.206   1.63  
    ## # ... with 69 more rows

``` r
cv_df %>% pull(test) %>% .[[1]] %>% as_tibble() #similarly can look at testing dataset.
```

    ## # A tibble: 21 x 3
    ##       id      x      y
    ##    <int>  <dbl>  <dbl>
    ##  1     5 0.202   1.33 
    ##  2    12 0.177   0.836
    ##  3    19 0.380   0.982
    ##  4    22 0.212   0.710
    ##  5    28 0.382   0.932
    ##  6    31 0.482   0.498
    ##  7    37 0.794  -1.12 
    ##  8    42 0.647   0.158
    ##  9    47 0.0233 -0.148
    ## 10    56 0.0995  1.13 
    ## # ... with 11 more rows

converting all datasets of cv\_df stored as lists into tibbles.

``` r
cv_df =
  cv_df %>% 
  mutate(
    train = map(train, as_tibble),  #convert everything in train datasets as tibble.
    test = map(test, as_tibble) #map across testing datasets and convert to tibble too.
  # necessary conversion to use models functions.
  )
cv_df                
```

    ## # A tibble: 100 x 3
    ##    train             test              .id  
    ##    <list>            <list>            <chr>
    ##  1 <tibble [79 x 3]> <tibble [21 x 3]> 001  
    ##  2 <tibble [79 x 3]> <tibble [21 x 3]> 002  
    ##  3 <tibble [79 x 3]> <tibble [21 x 3]> 003  
    ##  4 <tibble [79 x 3]> <tibble [21 x 3]> 004  
    ##  5 <tibble [79 x 3]> <tibble [21 x 3]> 005  
    ##  6 <tibble [79 x 3]> <tibble [21 x 3]> 006  
    ##  7 <tibble [79 x 3]> <tibble [21 x 3]> 007  
    ##  8 <tibble [79 x 3]> <tibble [21 x 3]> 008  
    ##  9 <tibble [79 x 3]> <tibble [21 x 3]> 009  
    ## 10 <tibble [79 x 3]> <tibble [21 x 3]> 010  
    ## # ... with 90 more rows
…
# output = a list column w/linear models, 100 of them

# doing the same with smooth_model & wiggly model:
  smooth_mod = map(.x = train, ~gam(y ~ s(x), data = .x)),
  wiggle_mod = map(.x = train, ~gam(y ~s(x, k = 30), sp = 10e-6, data = .x))
  ) %>% 
  mutate(            #checking rmse's:
    rmse_linear = map2(.x = linear_mod, .y = test, ~rmse(model = .x, data = .y)) #since 2 inputs needed(model-type and data column="test"), need map2
  )    # = output will be a column of lists that have a single value for rmse in each.
```

    ## # A tibble: 100 x 7
    ##    train         test         .id   linear_mod smooth_mod wiggle_mod rmse_linear
    ##    <list>        <list>       <chr> <list>     <list>     <list>     <list>     
    ##  1 <tibble [79 ~ <tibble [21~ 001   <lm>       <gam>      <gam>      <dbl [1]>  
    ##  2 <tibble [79 ~ <tibble [21~ 002   <lm>       <gam>      <gam>      <dbl [1]>  
    ##  3 <tibble [79 ~ <tibble [21~ 003   <lm>       <gam>      <gam>      <dbl [1]>  
    ##  4 <tibble [79 ~ <tibble [21~ 004   <lm>       <gam>      <gam>      <dbl [1]>  
    ##  5 <tibble [79 ~ <tibble [21~ 005   <lm>       <gam>      <gam>      <dbl [1]>  
    ##  6 <tibble [79 ~ <tibble [21~ 006   <lm>       <gam>      <gam>      <dbl [1]>  
    ##  7 <tibble [79 ~ <tibble [21~ 007   <lm>       <gam>      <gam>      <dbl [1]>  
    ##  8 <tibble [79 ~ <tibble [21~ 008   <lm>       <gam>      <gam>      <dbl [1]>  
    ##  9 <tibble [79 ~ <tibble [21~ 009   <lm>       <gam>      <gam>      <dbl [1]>  
    ## 10 <tibble [79 ~ <tibble [21~ 010   <lm>       <gam>      <gam>      <dbl [1]>  
    ## # ... with 90 more rows
…
cv_df   
```

    ## # A tibble: 100 x 9
    ##    train test  .id   linear_mod smooth_mod wiggly_mod rmse_linear rmse_smooth
    ##    <lis> <lis> <chr> <list>     <list>     <list>           <dbl>       <dbl>
    ##  1 <tib~ <tib~ 001   <lm>       <gam>      <gam>            0.675       0.298
    ##  2 <tib~ <tib~ 002   <lm>       <gam>      <gam>            0.655       0.336
    ##  3 <tib~ <tib~ 003   <lm>       <gam>      <gam>            0.785       0.295
    ##  4 <tib~ <tib~ 004   <lm>       <gam>      <gam>            0.874       0.263
    ##  5 <tib~ <tib~ 005   <lm>       <gam>      <gam>            0.784       0.250
    ##  6 <tib~ <tib~ 006   <lm>       <gam>      <gam>            0.844       0.324
    ##  7 <tib~ <tib~ 007   <lm>       <gam>      <gam>            0.791       0.274
    ##  8 <tib~ <tib~ 008   <lm>       <gam>      <gam>            0.758       0.310
    ##  9 <tib~ <tib~ 009   <lm>       <gam>      <gam>            0.621       0.287
    ## 10 <tib~ <tib~ 010   <lm>       <gam>      <gam>            0.839       0.338
    ## # ... with 90 more rows, and 1 more variable: rmse_wiggly <dbl>
…
